<svg xmlns="http://www.w3.org/2000/svg" xmlns:xlink="http://www.w3.org/1999/xlink" width="120" height="19" viewBox="0 0 120 19">
    <defs>
        <path id="b" d="M10 121.76h112.053L138.5 112l14.716 9.76H267c5.523 0 10 4.478 10 10V272c0 5.523-4.477 10-10 10H10c-5.523 0-10-4.477-10-10V131.76c0-5.522 4.477-10 10-10z"/>
        <filter id="a" width="117.7%" height="128.8%" x="-8.8%" y="-10.3%" filterUnits="objectBoundingBox">
            <feOffset in="SourceAlpha" result="shadowOffsetOuter1"/>
            <feGaussianBlur in="shadowOffsetOuter1" result="shadowBlurOuter1" stdDeviation="4.5"/>
            <feColorMatrix in="shadowBlurOuter1" result="shadowMatrixOuter1" values="0 0 0 0 0 0 0 0 0 0 0 0 0 0 0 0 0 0 0.148267663 0"/>
            <feOffset dy="7" in="SourceAlpha" result="shadowOffsetOuter2"/>
            <feGaussianBlur in="shadowOffsetOuter2" result="shadowBlurOuter2" stdDeviation="4"/>
            <feColorMatrix in="shadowBlurOuter2" result="shadowMatrixOuter2" values="0 0 0 0 0 0 0 0 0 0 0 0 0 0 0 0 0 0 0.274796196 0"/>
            <feMerge>
                <feMergeNode in="shadowMatrixOuter1"/>
                <feMergeNode in="shadowMatrixOuter2"/>
            </feMerge>
        </filter>
    </defs>
    <g fill="none" fill-rule="evenodd">
        <path fill="#829BA9" d="M-220-190h1280v400H-220z" style="mix-blend-mode:color-burn"/>
        <g transform="translate(-20 -140)">
            <use fill="#000" filter="url(#a)" xlink:href="#b"/>
            <use fill="#FFF" xlink:href="#b"/>
        </g>
        <path fill="#FF6700" d="M10 15l-5.878 3.09 1.123-6.545L.489 6.91l6.572-.955L10 0l2.939 5.955 6.572.955-4.756 4.635 1.123 6.545L10 15zm25 0l-5.878 3.09 1.123-6.545-4.756-4.635 6.572-.955L35 0l2.939 5.955 6.572.955-4.756 4.635 1.123 6.545L35 15zm25 0l-5.878 3.09 1.123-6.545-4.756-4.635 6.572-.955L60 0l2.939 5.955 6.572.955-4.756 4.635 1.123 6.545L60 15zm25 0l-5.878 3.09 1.123-6.545-4.756-4.635 6.572-.955L85 0l2.939 5.955 6.572.955-4.756 4.635 1.123 6.545L85 15zm25 0l-5.878 3.09 1.123-6.545-4.756-4.635 6.572-.955L110 0l2.939 5.955 6.572.955-4.756 4.635 1.123 6.545L110 15z"/>
    </g>
</svg>
